{ "type" : "chest"
, "pools" :
  [ { "rolls" :
      { "min" : 1
      , "max" : 1
      }
    , "bonus_rolls" : 0
    , "entries" :
      [ { "type" : "loot_table"
        , "name" : "dungeon:chest/dirtyarmor"
        , "weight" : 40
        , "value" : -1
        }
      , { "type" : "loot_table"
        , "name" : "dungeon:chest/rustedarmor"
        , "weight" : 40
        , "value" : -1
        }
      , { "type" : "loot_table"
        , "name" : "dungeon:chest/cumbersomearmor"
        , "weight" : 40
        , "value" : -1
        }
      , { "type" : "loot_table"
        , "name" : "dungeon:chest/heavyarmor"
        , "weight" : 20
        , "value" : 2
        }
      , { "type" : "item"
        , "name" : "minecraft:iron_boots"
        , "weight" : 5
        , "value" : 3
        , "functions" :
          [ { "function" : "set_name"
            , "name" : "boots of Sir Lightfoot"
            }
          , { "function" : "set_nbt"
            , "tag" : "{Enchantments : [{lvl : 1, id : \"minecraft:feather_falling\"}]}"
            }
          ]
        }
      ]
    }
  ]
}
