{ "type" : "chest"
, "pools" :
  [ { "rolls" : 1
    , "entries" :
      [ { "type" : "item"
        , "name" : "minecraft:iron_helmet"
        , "functions" :
          [ { "function" : "minecraft:set_name"
            , "name" : "heavy helmet"
            }
          , { "function" : "minecraft:set_attributes"
            , "modifiers" :
              [ { "name" : "cumbersome"
                , "attribute" : "generic.attackSpeed"
                , "operation" : "multiply_total"
                , "amount" : -0.1
                , "slot" : "head"
                }
              , { "name" : "generic.armor"
                , "attribute" : "generic.armor"
                , "operation" : "addition"
                , "amount" : 3
                , "slot" : "head"
                }
              , { "name" : "generic.armorToughness"
                , "attribute" : "generic.armorToughness"
                , "operation" : "addition"
                , "amount" : 2
                , "slot" : "head"
                }
              ]
            }
          ]
        }
      , { "type" : "item"
        , "name" : "minecraft:iron_chestplate"
        , "functions" :
          [ { "function" : "minecraft:set_name"
            , "name" : "heavy breastplate"
            }
          , { "function" : "minecraft:set_attributes"
            , "modifiers" :
              [ { "name" : "cumbersome"
                , "attribute" : "generic.attackSpeed"
                , "operation" : "multiply_total"
                , "amount" : -0.1
                , "slot" : "chest"
                }
              , { "name" : "generic.armor"
                , "attribute" : "generic.armor"
                , "operation" : "addition"
                , "amount" : 8
                , "slot" : "chest"
                }
              , { "name" : "generic.armorToughness"
                , "attribute" : "generic.armorToughness"
                , "operation" : "addition"
                , "amount" : 2
                , "slot" : "chest"
                }
              ]
            }
          ]
        }
      , { "type" : "item"
        , "name" : "minecraft:iron_leggings"
        , "functions" :
          [ { "function" : "minecraft:set_name"
            , "name" : "heavy greaves"
            }
          , { "function" : "minecraft:set_attributes"
            , "modifiers" :
              [ { "name" : "cumbersome"
                , "attribute" : "generic.movementSpeed"
                , "operation" : "multiply_total"
                , "amount" : -0.15
                , "slot" : "legs"
                }
              , { "name" : "generic.armor"
                , "attribute" : "generic.armor"
                , "operation" : "addition"
                , "amount" : 6
                , "slot" : "legs"
                }
              , { "name" : "generic.armorToughness"
                , "attribute" : "generic.armorToughness"
                , "operation" : "addition"
                , "amount" : 2
                , "slot" : "legs"
                }
              ]
            }
          ]
        }
      , { "type" : "item"
        , "name" : "minecraft:iron_boots"
        , "functions" :
          [ { "function" : "minecraft:set_name"
            , "name" : "heavy boots"
            }
          , { "function" : "minecraft:set_attributes"
            , "modifiers" :
              [ { "name" : "cumbersome"
                , "attribute" : "generic.movementSpeed"
                , "operation" : "multiply_total"
                , "amount" : -0.15
                , "slot" : "feet"
                }
              , { "name" : "generic.armor"
                , "attribute" : "generic.armor"
                , "operation" : "addition"
                , "amount" : 3
                , "slot" : "feet"
                }
              , { "name" : "generic.armorToughness"
                , "attribute" : "generic.armorToughness"
                , "operation" : "addition"
                , "amount" : 2
                , "slot" : "feet"
                }
              ]
            }
          ]
        }
      , { "type" : "item"
        , "name" : "minecraft:shield"
        , "functions" :
          [ { "function" : "minecraft:set_name"
            , "name" : "heavy shield"
            }
          , { "function" : "minecraft:set_attributes"
            , "modifiers" :
              [ { "name" : "cumbersome"
                , "attribute" : "generic.attackDamage"
                , "operation" : "addition"
                , "amount" : -4
                , "slot" : "mainhand"
                }
              , { "name" : "generic.armor"
                , "attribute" : "generic.armor"
                , "operation" : "addition"
                , "amount" : 2
                , "slot" : "mainhand"
                }
              , { "name" : "generic.armorToughness"
                , "attribute" : "generic.armorToughness"
                , "operation" : "addition"
                , "amount" : 2
                , "slot" : "mainhand"
                }
              , { "name" : "cumbersome"
                , "attribute" : "generic.attackDamage"
                , "operation" : "addition"
                , "amount" : -4
                , "slot" : "offhand"
                }
              , { "name" : "generic.armor"
                , "attribute" : "generic.armor"
                , "operation" : "addition"
                , "amount" : 2
                , "slot" : "offhand"
                }
              , { "name" : "generic.armorToughness"
                , "attribute" : "generic.armorToughness"
                , "operation" : "addition"
                , "amount" : 2
                , "slot" : "offhand"
                }
              ]
            }
          ]
        }
      ]
    }
  ]
}
